Library/Bee/artifacts/movedfrom/Unity.2D.Animation.Editor.ref.dll_6494339813644357143.movedfrom
Library/Bee/artifacts/movedfrom/Unity.2D.Animation.Runtime.ref.dll_16045042116043019044.movedfrom
Library/Bee/artifacts/movedfrom/Unity.2D.Animation.Triangle.Runtime.ref.dll_6315856960612532540.movedfrom
Library/Bee/artifacts/movedfrom/Unity.2D.Common.Editor.ref.dll_9383236913178306390.movedfrom
Library/Bee/artifacts/movedfrom/Unity.2D.Common.Runtime.ref.dll_2159401002690845301.movedfrom
Library/Bee/artifacts/movedfrom/Unity.2D.IK.Editor.ref.dll_18240868431216654191.movedfrom
Library/Bee/artifacts/movedfrom/Unity.2D.IK.Runtime.ref.dll_4139322103237019724.movedfrom
Library/Bee/artifacts/movedfrom/Unity.2D.Path.Editor.ref.dll_2507158333861058604.movedfrom
Library/Bee/artifacts/movedfrom/Unity.2D.PixelPerfect.Editor.ref.dll_13179014337933237450.movedfrom
Library/Bee/artifacts/movedfrom/Unity.2D.PixelPerfect.ref.dll_10273441772442152279.movedfrom
Library/Bee/artifacts/movedfrom/Unity.2D.Psdimporter.Editor.ref.dll_5174118586272685352.movedfrom
Library/Bee/artifacts/movedfrom/Unity.2D.Sprite.Editor.ref.dll_11716379346708781660.movedfrom
Library/Bee/artifacts/movedfrom/Unity.2D.SpriteShape.Editor.ref.dll_12344971370236750143.movedfrom
Library/Bee/artifacts/movedfrom/Unity.2D.SpriteShape.Runtime.ref.dll_2574161083314426236.movedfrom
Library/Bee/artifacts/movedfrom/Unity.2D.Tilemap.Editor.ref.dll_16855349101649264413.movedfrom
Library/Bee/artifacts/movedfrom/Unity.2D.Tilemap.Extras.Editor.ref.dll_2705260768461659358.movedfrom
Library/Bee/artifacts/movedfrom/Unity.2D.Tilemap.Extras.ref.dll_15968746112497892355.movedfrom
Library/Bee/artifacts/movedfrom/Unity.InternalAPIEditorBridge.001.ref.dll_15220665307989208330.movedfrom
Library/Bee/artifacts/movedfrom/Unity.InternalAPIEngineBridge.001.ref.dll_14246401980596343887.movedfrom
Library/Bee/artifacts/movedfrom/Unity.Mathematics.Editor.ref.dll_5348676514064607735.movedfrom
Library/Bee/artifacts/movedfrom/Unity.Mathematics.ref.dll_5669335584793653594.movedfrom
Library/Bee/artifacts/movedfrom/Unity.PlasticSCM.Editor.ref.dll_14697804982844018402.movedfrom
Library/Bee/artifacts/movedfrom/Unity.Rider.Editor.ref.dll_11706774018472298211.movedfrom
Library/Bee/artifacts/movedfrom/Unity.TextMeshPro.Editor.ref.dll_14247004639641441850.movedfrom
Library/Bee/artifacts/movedfrom/Unity.TextMeshPro.ref.dll_16889014065229257959.movedfrom
Library/Bee/artifacts/movedfrom/Unity.Timeline.Editor.ref.dll_1370744938779439902.movedfrom
Library/Bee/artifacts/movedfrom/Unity.Timeline.ref.dll_15173368180737704387.movedfrom
Library/Bee/artifacts/movedfrom/Unity.VSCode.Editor.ref.dll_6388319242899333029.movedfrom
Library/Bee/artifacts/movedfrom/Unity.VisualScripting.Core.Editor.ref.dll_18342351409859142665.movedfrom
Library/Bee/artifacts/movedfrom/Unity.VisualScripting.Core.ref.dll_5675096879357492776.movedfrom
Library/Bee/artifacts/movedfrom/Unity.VisualScripting.Flow.Editor.ref.dll_8916573228339081034.movedfrom
Library/Bee/artifacts/movedfrom/Unity.VisualScripting.Flow.ref.dll_10795936317831213783.movedfrom
Library/Bee/artifacts/movedfrom/Unity.VisualScripting.State.Editor.ref.dll_13576910289478910627.movedfrom
Library/Bee/artifacts/movedfrom/Unity.VisualScripting.State.ref.dll_7600604229726240238.movedfrom
Library/Bee/artifacts/movedfrom/Unity.VisualStudio.Editor.ref.dll_17544914859700520121.movedfrom
Library/Bee/artifacts/movedfrom/UnityEditor.UI.ref.dll_13622993002070669097.movedfrom
Library/Bee/artifacts/movedfrom/UnityEngine.UI.ref.dll_8751741266572615572.movedfrom
Library/Bee/artifacts/movedfrom/UnityEditor.CoreModule.dll_1012822130456949724.movedfrom
Library/Bee/artifacts/movedfrom/UnityEditor.DeviceSimulatorModule.dll_4422230917728543909.movedfrom
Library/Bee/artifacts/movedfrom/UnityEditor.dll_16057114898220543737.movedfrom
Library/Bee/artifacts/movedfrom/UnityEditor.GraphViewModule.dll_17584547950187090218.movedfrom
Library/Bee/artifacts/movedfrom/UnityEditor.PackageManagerUIModule.dll_4680291403940570680.movedfrom
Library/Bee/artifacts/movedfrom/UnityEditor.QuickSearchModule.dll_6590923772664979980.movedfrom
Library/Bee/artifacts/movedfrom/UnityEditor.SceneTemplateModule.dll_17597302019350780429.movedfrom
Library/Bee/artifacts/movedfrom/UnityEditor.UIBuilderModule.dll_5229112710191516254.movedfrom
Library/Bee/artifacts/movedfrom/UnityEditor.UIElementsModule.dll_3618797276127890840.movedfrom
Library/Bee/artifacts/movedfrom/UnityEditor.UIElementsSamplesModule.dll_2767562816382170453.movedfrom
Library/Bee/artifacts/movedfrom/UnityEditor.UIServiceModule.dll_9332474037196642936.movedfrom
Library/Bee/artifacts/movedfrom/UnityEditor.UnityConnectModule.dll_10572666211689894034.movedfrom
Library/Bee/artifacts/movedfrom/UnityEngine.AccessibilityModule.dll_2799999314986860970.movedfrom
Library/Bee/artifacts/movedfrom/UnityEngine.AIModule.dll_15348647861244026544.movedfrom
Library/Bee/artifacts/movedfrom/UnityEngine.AndroidJNIModule.dll_12718576317392518254.movedfrom
Library/Bee/artifacts/movedfrom/UnityEngine.AnimationModule.dll_14019240935097263568.movedfrom
Library/Bee/artifacts/movedfrom/UnityEngine.ARModule.dll_10264863450133937529.movedfrom
Library/Bee/artifacts/movedfrom/UnityEngine.AssetBundleModule.dll_11484422255099139838.movedfrom
Library/Bee/artifacts/movedfrom/UnityEngine.AudioModule.dll_3314823674909545154.movedfrom
Library/Bee/artifacts/movedfrom/UnityEngine.ClothModule.dll_10730102693845971366.movedfrom
Library/Bee/artifacts/movedfrom/UnityEngine.ClusterInputModule.dll_1321275413197284184.movedfrom
Library/Bee/artifacts/movedfrom/UnityEngine.ClusterRendererModule.dll_4831146376374039081.movedfrom
Library/Bee/artifacts/movedfrom/UnityEngine.CoreModule.dll_3544077472998874887.movedfrom
Library/Bee/artifacts/movedfrom/UnityEngine.CrashReportingModule.dll_12360887684629699839.movedfrom
Library/Bee/artifacts/movedfrom/UnityEngine.DirectorModule.dll_3811385784619513572.movedfrom
Library/Bee/artifacts/movedfrom/UnityEngine.dll_1259490317699447774.movedfrom
Library/Bee/artifacts/movedfrom/UnityEngine.DSPGraphModule.dll_4194580333441124357.movedfrom
Library/Bee/artifacts/movedfrom/UnityEngine.GameCenterModule.dll_15766750319047961951.movedfrom
Library/Bee/artifacts/movedfrom/UnityEngine.GIModule.dll_7871626902697494218.movedfrom
Library/Bee/artifacts/movedfrom/UnityEngine.GridModule.dll_1053899063464064254.movedfrom
Library/Bee/artifacts/movedfrom/UnityEngine.HotReloadModule.dll_4888401622965256530.movedfrom
Library/Bee/artifacts/movedfrom/UnityEngine.ImageConversionModule.dll_12609423342359112221.movedfrom
Library/Bee/artifacts/movedfrom/UnityEngine.IMGUIModule.dll_7376964327581640355.movedfrom
Library/Bee/artifacts/movedfrom/UnityEngine.InputLegacyModule.dll_3505480908494343407.movedfrom
Library/Bee/artifacts/movedfrom/UnityEngine.InputModule.dll_10697850399764903782.movedfrom
Library/Bee/artifacts/movedfrom/UnityEngine.JSONSerializeModule.dll_9724153157870445108.movedfrom
Library/Bee/artifacts/movedfrom/UnityEngine.LocalizationModule.dll_5810460797856437841.movedfrom
Library/Bee/artifacts/movedfrom/UnityEngine.ParticleSystemModule.dll_18346815131971496077.movedfrom
Library/Bee/artifacts/movedfrom/UnityEngine.PerformanceReportingModule.dll_8480440124564978374.movedfrom
Library/Bee/artifacts/movedfrom/UnityEngine.Physics2DModule.dll_1095581196199615845.movedfrom
Library/Bee/artifacts/movedfrom/UnityEngine.PhysicsModule.dll_8308659229673015763.movedfrom
Library/Bee/artifacts/movedfrom/UnityEngine.ProfilerModule.dll_7434031641549454833.movedfrom
Library/Bee/artifacts/movedfrom/UnityEngine.RuntimeInitializeOnLoadManagerInitializerModule.dll_13266342684282787886.movedfrom
Library/Bee/artifacts/movedfrom/UnityEngine.ScreenCaptureModule.dll_11590804515523694230.movedfrom
Library/Bee/artifacts/movedfrom/UnityEngine.SharedInternalsModule.dll_3679135842808587629.movedfrom
Library/Bee/artifacts/movedfrom/UnityEngine.SpriteMaskModule.dll_14121936518512706265.movedfrom
Library/Bee/artifacts/movedfrom/UnityEngine.SpriteShapeModule.dll_13313215046405885704.movedfrom
Library/Bee/artifacts/movedfrom/UnityEngine.StreamingModule.dll_8584783013955378446.movedfrom
Library/Bee/artifacts/movedfrom/UnityEngine.SubstanceModule.dll_6038864154636393244.movedfrom
Library/Bee/artifacts/movedfrom/UnityEngine.SubsystemsModule.dll_3362105154053139180.movedfrom
Library/Bee/artifacts/movedfrom/UnityEngine.TerrainModule.dll_10201995638991524545.movedfrom
Library/Bee/artifacts/movedfrom/UnityEngine.TerrainPhysicsModule.dll_18381340703745581850.movedfrom
Library/Bee/artifacts/movedfrom/UnityEngine.TextCoreModule.dll_14816727428197951220.movedfrom
Library/Bee/artifacts/movedfrom/UnityEngine.TextRenderingModule.dll_14563024184960618123.movedfrom
Library/Bee/artifacts/movedfrom/UnityEngine.TilemapModule.dll_3211396921552368586.movedfrom
Library/Bee/artifacts/movedfrom/UnityEngine.TLSModule.dll_13672643507797454311.movedfrom
Library/Bee/artifacts/movedfrom/UnityEngine.UIElementsModule.dll_3667894078118635235.movedfrom
Library/Bee/artifacts/movedfrom/UnityEngine.UIElementsNativeModule.dll_10046810388876072538.movedfrom
Library/Bee/artifacts/movedfrom/UnityEngine.UIModule.dll_15020903431034987612.movedfrom
Library/Bee/artifacts/movedfrom/UnityEngine.UmbraModule.dll_12165712064046726709.movedfrom
Library/Bee/artifacts/movedfrom/UnityEngine.UNETModule.dll_14111290116016100480.movedfrom
Library/Bee/artifacts/movedfrom/UnityEngine.UnityAnalyticsModule.dll_2178735006213700233.movedfrom
Library/Bee/artifacts/movedfrom/UnityEngine.UnityConnectModule.dll_9230457247624401213.movedfrom
Library/Bee/artifacts/movedfrom/UnityEngine.UnityCurlModule.dll_17702236764085311421.movedfrom
Library/Bee/artifacts/movedfrom/UnityEngine.UnityTestProtocolModule.dll_16297139099452918443.movedfrom
Library/Bee/artifacts/movedfrom/UnityEngine.UnityWebRequestAssetBundleModule.dll_11777682042621451290.movedfrom
Library/Bee/artifacts/movedfrom/UnityEngine.UnityWebRequestAudioModule.dll_17126317724412478814.movedfrom
Library/Bee/artifacts/movedfrom/UnityEngine.UnityWebRequestModule.dll_13879165389210518684.movedfrom
Library/Bee/artifacts/movedfrom/UnityEngine.UnityWebRequestTextureModule.dll_3999064700193411827.movedfrom
Library/Bee/artifacts/movedfrom/UnityEngine.UnityWebRequestWWWModule.dll_9298533919671677487.movedfrom
Library/Bee/artifacts/movedfrom/UnityEngine.VehiclesModule.dll_12441119946520528511.movedfrom
Library/Bee/artifacts/movedfrom/UnityEngine.VFXModule.dll_4511926517583763284.movedfrom
Library/Bee/artifacts/movedfrom/UnityEngine.VideoModule.dll_5983633523169029735.movedfrom
Library/Bee/artifacts/movedfrom/UnityEngine.VirtualTexturingModule.dll_12680488659155687141.movedfrom
Library/Bee/artifacts/movedfrom/UnityEngine.VRModule.dll_2542034168930626004.movedfrom
Library/Bee/artifacts/movedfrom/UnityEngine.WindModule.dll_12069069584939244912.movedfrom
Library/Bee/artifacts/movedfrom/UnityEngine.XRModule.dll_6198608540651632434.movedfrom
Library/Bee/artifacts/movedfrom/Unity.VisualScripting.Antlr3.Runtime.dll_7341326118048378534.movedfrom